{
  "name": "PickerDollies",
  "version": "1.1.6",
  "factorio_version": "1.1",
  "title": "Picker Dollies",
  "author": "Nexela",
  "contact": "nexela@gmail.com",
  "dependencies": [
    "base >= 1.1.0",
    "stdlib >= 1.4.6",
    "(?) PickerAtheneum >= 1.0.0"
  ],
  "homepage": "",
  "description": "Move most placed entities quickly and easily.",
  "package": {
    "ignore": [],
    "scripts": {
      "datestamp": "../PickerAtheneum/.publish/datestamp.sh",
      "prepackage": "../PickerAtheneum/.publish/prepackage.sh",
      "prepublish": "../PickerAtheneum/.publish/prepublish.sh",
      "publish": "../PickerAtheneum/.publish/publish.sh",
      "version": "../PickerAtheneum/.publish/version.sh"
    }
  }
}
