{
	"name": "osm-lib",
	"version": "1.1.17",
	"factorio_version": "1.1",
	"title": "OSM lib",
	"author": "OldSkoolMatt",
	"dependencies":
	[
		"base >= 1.1"
	],
	"description": "I finally decided to rely on my own function library,\nYES! THAT'S CORRECT! MY OWN FUNCTION LIBRARY!"
}
