{
  "name": "MultipleUnitTrainControl",
  "version": "0.4.14",
  "factorio_version": "1.1",
  "title": "Multiple Unit Train Control",
  "author": "robot256",
  "contact": "",
  "homepage": "https://github.com/robot256/MultipleUnitTrainControl",
  "description": "Replaces bidirectional trains with ones twice as powerful, to simulate real locomotives driving backwards.",
  "dependencies": [
    "base >= 1.1.0", 
    "flib",
    "Robot256Lib >= 0.1.0",
    "(?)FARL >= 3.1.3", 
    "(?)boblogistics >= 0.17.0", 
    "(?)Realistic_Electric_Trains >= 0.4.2",
    "(?)Realistic_Electric_Trains_Fork",
    "(?)Realistic_Electric_Trains_fix",
    "(?)FuelTrainStop >= 0.17.3", 
    "(?)FusionTrain >= 0.17.5", 
    "(?)bigger_slower_trains-M",
    "(?)bobvehicleequipment",
    "(?)Krastorio2 >= 0.9.0",
    "(?)Electronic_Locomotives >= 1.0.0",
    "(?)fluidTrains",
    "(?)electric-vehicles-reborn >= 0.1.2",
    "!Noxys_Multidirectional_Trains"
  ]
}
