{
  "name": "NightBrightness",
  "version": "1.1.7",
  
  "title": "Night Brightness",
  "description": "The nights will be darker or lighter or variously",
  
  "author": "darkfrei",
  "license": "MIT",
  
  "dependencies": ["base", "? LightCone"],
  "factorio_version": "1.1"
}