{
	"entity": [
		["deep-storage-unit", "memory-unit"],
		["deep-storage-unit-powersource", "memory-unit-powersource"]
	],
	"item": [
		["deep-storage-unit", "memory-unit"],
		["storage-data", "memory-element"]
	],
	"technology": [
		["deep-storage-unit", "memory-unit"]
	],
	"recipe": [
		["deep-storage-unit", "memory-unit"]
	]
}